{
    "baseUrl": "http://maven-teste:3000/",
    "reporter": "cypress-multi-reporters",
    "reporterOptions": {
      "reporterEnabled": "mochawesome",
      "mochawesomeReporterOptions": {
        "reportDir": "cypress/reports/mocha",
        "quite": true,
        "overwrite": false,
        "html": false,
        "json": true
      }
    }
}
